REGION,WOREDA,KEBELE,HOUSEHOLDS,HOUSEHOLD_MEMBERS,HOUSEHOLDS_WITH_CHILD_PROTECTION_CASES,HOUSEHOLDS_MEMBERS_WITH_CHILD_PROTECTION_CASES,HOUSEHOLDS_MEMBERS_SERVED,MALTREATMENT,BULLYING,YOUTHVIOLENCE,INTIMATEPARTNERVIOLENCE,SEXUALVIOLENCE,EMOTIONALPSYCHOLOGICALVIOLENCE,GENDERBASEDVIOLENCE,CHILDRENWITHOUTADEQUATEPARENTALCARE,CHILDTRAFFICKING,CHILDRENLIVINGWITHDISABILITIES,CHILDLABOUR,CHILDRENINCONTACTWITHTHELAW,CHILDRENINONTHEMOVE,CHILDRENINATRISKOFHARMFULPRACTICES,CHILDRENINSTREETSITUATIONS,REFERREDTOCASEMANAGEMENTSERVICES,RECEIVEDSERVICES,NOTRECEIVEDSERVICES,OPENCASES,CLOSEDCASES,VISITS,REASONSERVICENOTACCESSED
Oromiya,Dodota,Awash Bishola,2,8,2,3,1,0,0,0,0,0,0,0,0,0,0,0,0,0,0,0,,,,,,,
Oromiya,Dodota,Badosa Betela,4,15,4,6,2,0,0,0,0,0,0,0,0,0,0,0,0,0,0,0,,,,,,,
Oromiya,Dodota,Dire Kiltu,2,10,2,3,2,0,0,0,0,0,0,0,0,0,0,0,0,0,0,0,,,,,,,
Oromiya,Dodota,Doddota Alem,1,5,0,0,0,0,4,0,0,13,4,0,0,0,0,4,0,1,0,0,,,,,,,
Oromiya,Dodota,Lode Sharbe,1,2,0,0,0,0,0,0,0,0,0,0,0,0,0,0,0,0,0,0,,,,,,,
Oromiya,Dodota,Tero Desta,2,10,1,1,1,0,0,0,0,0,0,0,0,0,0,0,0,0,0,0,,,,,,,
